\relax 
\providecommand\hyper@newdestlabel[2]{}
\providecommand\HyperFirstAtBeginDocument{\AtBeginDocument}
\HyperFirstAtBeginDocument{\ifx\hyper@anchor\@undefined
\global\let\oldnewlabel\newlabel
\gdef\newlabel#1#2{\newlabelxx{#1}#2}
\gdef\newlabelxx#1#2#3#4#5#6{\oldnewlabel{#1}{{#2}{#3}}}
\AtEndDocument{\ifx\hyper@anchor\@undefined
\let\newlabel\oldnewlabel
\fi}
\fi}
\global\let\hyper@last\relax 
\gdef\HyperFirstAtBeginDocument#1{#1}
\providecommand\HyField@AuxAddToFields[1]{}
\providecommand\HyField@AuxAddToCoFields[2]{}
\providecommand\babel@aux[2]{}
\@nameuse{bbl@beforestart}
\providecommand \oddpage@label [2]{}
\babel@aux{UKenglish}{}
\@writefile{toc}{\contentsline {section}{\numberline {1}Abstract}{1}{section.1}\protected@file@percent }
\@writefile{toc}{\contentsline {section}{\numberline {2}Introduction}{3}{section.2}\protected@file@percent }
\@writefile{lof}{\contentsline {figure}{\numberline {1}{\ignorespaces Traditional sun-shades proposed in `Tips for Daylighting with Windows' (O'Conner et al.)\relax }}{3}{figure.caption.4}\protected@file@percent }
\providecommand*\caption@xref[2]{\@setref\relax\@undefined{#1}}
\newlabel{fig:TipsDaylighting1}{{1}{3}{Traditional sun-shades proposed in `Tips for Daylighting with Windows' (O'Conner et al.)\relax }{figure.caption.4}{}}
\newlabel{fig:TorresSakamoto1}{{2a}{4}{Fa\c {c}ade design optimisation for daylight (Torres \& Sakamoto)\relax }{figure.caption.5}{}}
\newlabel{sub@fig:TorresSakamoto1}{{a}{4}{Fa\c {c}ade design optimisation for daylight (Torres \& Sakamoto)\relax }{figure.caption.5}{}}
\newlabel{fig:ManzanPinto1}{{2b}{4}{External shading device optimisation (Manzan \& Pinto)\relax }{figure.caption.5}{}}
\newlabel{sub@fig:ManzanPinto1}{{b}{4}{External shading device optimisation (Manzan \& Pinto)\relax }{figure.caption.5}{}}
\@writefile{lof}{\contentsline {figure}{\numberline {2}{\ignorespaces Optimisation of sun-shading fa\c {c}ade and devices\relax }}{4}{figure.caption.5}\protected@file@percent }
\newlabel{fig:ExampleSunShadeOpt1}{{2}{4}{Optimisation of sun-shading fa\c {c}ade and devices\relax }{figure.caption.5}{}}
\@writefile{lof}{\contentsline {figure}{\numberline {3}{\ignorespaces Optimum building envelope design - shape coefficient visualisation (Zhang et al.)\relax }}{5}{figure.caption.6}\protected@file@percent }
\newlabel{fig:BuildingEnvShpCoEff1}{{3}{5}{Optimum building envelope design - shape coefficient visualisation (Zhang et al.)\relax }{figure.caption.6}{}}
\newlabel{fig:GaudiFunicular1}{{4a}{6}{Antoni Gaud{\'i} Funicular for the Col{\`o}nia G{\"u}ell chapel (Martinell)\relax }{figure.caption.7}{}}
\newlabel{sub@fig:GaudiFunicular1}{{a}{6}{Antoni Gaud{\'i} Funicular for the Col{\`o}nia G{\"u}ell chapel (Martinell)\relax }{figure.caption.7}{}}
\newlabel{fig:FreiOtto1}{{4b}{6}{Frei Otto Experimenting with Soap Bubbles (Zexin)\relax }{figure.caption.7}{}}
\newlabel{sub@fig:FreiOtto1}{{b}{6}{Frei Otto Experimenting with Soap Bubbles (Zexin)\relax }{figure.caption.7}{}}
\@writefile{lof}{\contentsline {figure}{\numberline {4}{\ignorespaces Architectural Form-finding: Antoni Gaud{\'i} and Frei Otto\relax }}{6}{figure.caption.7}\protected@file@percent }
\newlabel{fig:FreeForm1}{{4}{6}{Architectural Form-finding: Antoni Gaud{\'i} and Frei Otto\relax }{figure.caption.7}{}}
\citation{thompson1942growth}
\citation{thompson1915galileo}
\citation{galilei1914dialogues}
\citation{alexander1964notes}
\@writefile{toc}{\contentsline {section}{\numberline {3}Literature Review}{8}{section.3}\protected@file@percent }
\@writefile{toc}{\contentsline {subsection}{\numberline {3.1}Understanding and creating Form}{8}{subsection.3.1}\protected@file@percent }
\citation{alexander1977pattern}
\citation{bhatt2010christopher}
\citation{dawes2017christopher}
\citation{Mitchell-1990}
\citation{fletcher1958history}
\citation{stiny-1980}
\citation{mccarthy-1987}
\@writefile{toc}{\contentsline {subsection}{\numberline {3.2}Computers in Architectural design}{11}{subsection.3.2}\protected@file@percent }
\@writefile{lof}{\contentsline {figure}{\numberline {5}{\ignorespaces Greek Orders - Doric Order (Fletcher)\relax }}{12}{figure.caption.8}\protected@file@percent }
\newlabel{fig:Fletcher1}{{5}{12}{Greek Orders - Doric Order (Fletcher)\relax }{figure.caption.8}{}}
\@writefile{lof}{\contentsline {figure}{\numberline {6}{\ignorespaces Recursive grammar for an architectural column (Mitchell)\relax }}{12}{figure.caption.9}\protected@file@percent }
\newlabel{fig:Mitchell01}{{6}{12}{Recursive grammar for an architectural column (Mitchell)\relax }{figure.caption.9}{}}
\citation{Frazer-1995}
\@writefile{lof}{\contentsline {figure}{\numberline {7}{\ignorespaces Recursive grammar applied as a linear sequence of elements (Mitchell)\relax }}{13}{figure.caption.10}\protected@file@percent }
\newlabel{fig:Mitchell02}{{7}{13}{Recursive grammar applied as a linear sequence of elements (Mitchell)\relax }{figure.caption.10}{}}
\@writefile{lof}{\contentsline {figure}{\numberline {8}{\ignorespaces Three-Dimensional machine readable grid, 1980 (Frazer)\relax }}{14}{figure.caption.11}\protected@file@percent }
\newlabel{fig:Frazer1}{{8}{14}{Three-Dimensional machine readable grid, 1980 (Frazer)\relax }{figure.caption.11}{}}
\citation{wolfram1984universality}
\citation{conway-1970}
\citation{neumann1966theory}
\@writefile{lof}{\contentsline {figure}{\numberline {9}{\ignorespaces Universal Constructor - a working model functioning as `interactive self-organising environment' (Frazer)\relax }}{15}{figure.caption.12}\protected@file@percent }
\newlabel{fig:Frazer2}{{9}{15}{Universal Constructor - a working model functioning as `interactive self-organising environment' (Frazer)\relax }{figure.caption.12}{}}
\citation{holland-1992}
\citation{dawkins-1995}
\@writefile{lof}{\contentsline {figure}{\numberline {10}{\ignorespaces Solar Study evolving a wrap-around sun-shade (Frazer)\relax }}{17}{figure.caption.13}\protected@file@percent }
\newlabel{fig:Frazer3}{{10}{17}{Solar Study evolving a wrap-around sun-shade (Frazer)\relax }{figure.caption.13}{}}
\citation{Martinell-1967}
\citation{Zerbst-1993}
\citation{Castle-2004}
\@writefile{toc}{\contentsline {subsection}{\numberline {3.3}Architectural Form-Finding (beginnings and theory)}{18}{subsection.3.3}\protected@file@percent }
\@writefile{lof}{\contentsline {figure}{\numberline {11}{\ignorespaces 1:15 scale reconstruction of Gaud{\'i}'s hanging model (Burry)\relax }}{18}{figure.caption.14}\protected@file@percent }
\newlabel{fig:GaudiFunicular2}{{11}{18}{1:15 scale reconstruction of Gaud{\'i}'s hanging model (Burry)\relax }{figure.caption.14}{}}
\citation{schumacher2009parametricism}
\citation{Burry2016-03-01}
\@writefile{lof}{\contentsline {figure}{\numberline {12}{\ignorespaces Frei Otto and G\"{u}nther Behnisch, Olympic Stadium, Munich, 1972 (Burry)\relax }}{19}{figure.caption.15}\protected@file@percent }
\newlabel{fig:FreiOtto2}{{12}{19}{Frei Otto and G\"{u}nther Behnisch, Olympic Stadium, Munich, 1972 (Burry)\relax }{figure.caption.15}{}}
\citation{van1924towards}
\citation{coatesMakris-1999}
\citation{Pottmann-2007}
\citation{asojo2000design}
\newlabel{fig:CoatesMakris1}{{13a}{20}{Domino House (Le Corbusier)\relax }{figure.caption.16}{}}
\newlabel{sub@fig:CoatesMakris1}{{a}{20}{Domino House (Le Corbusier)\relax }{figure.caption.16}{}}
\newlabel{fig:CoatesMakris2}{{13b}{20}{Stick and Slab primitive objects\relax }{figure.caption.16}{}}
\newlabel{sub@fig:CoatesMakris2}{{b}{20}{Stick and Slab primitive objects\relax }{figure.caption.16}{}}
\@writefile{lof}{\contentsline {figure}{\numberline {13}{\ignorespaces Shape Grammar of form with Genetic programming (Coates \& Makris)\relax }}{20}{figure.caption.16}\protected@file@percent }
\newlabel{fig:CoatesMakris3}{{13}{20}{Shape Grammar of form with Genetic programming (Coates \& Makris)\relax }{figure.caption.16}{}}
\citation{DeLanda-2002}
\citation{kolarevic2000digital}
\newlabel{fig:Asojo1}{{14a}{21}{Sketch Designs (Le Corbusier)\relax }{figure.caption.17}{}}
\newlabel{sub@fig:Asojo1}{{a}{21}{Sketch Designs (Le Corbusier)\relax }{figure.caption.17}{}}
\newlabel{fig:Asojo2}{{14b}{21}{Generated Prototype after Le Corbusier sketch designs\relax }{figure.caption.17}{}}
\newlabel{sub@fig:Asojo2}{{b}{21}{Generated Prototype after Le Corbusier sketch designs\relax }{figure.caption.17}{}}
\@writefile{lof}{\contentsline {figure}{\numberline {14}{\ignorespaces Genetic Programming incorporating Le Corbusier's techniques (Asojo)\relax }}{21}{figure.caption.17}\protected@file@percent }
\newlabel{fig:Asojo3}{{14}{21}{Genetic Programming incorporating Le Corbusier's techniques (Asojo)\relax }{figure.caption.17}{}}
\citation{Holland-2010}
\citation{darwin1872origin}
\citation{agkathidis-2016}
\@writefile{lof}{\contentsline {figure}{\numberline {15}{\ignorespaces Animate Architecture: Greg Lynn's work - Port Authority Bus Terminal, New York (Kolarevic)\relax }}{23}{figure.caption.18}\protected@file@percent }
\newlabel{fig:Kolarevic1}{{15}{23}{Animate Architecture: Greg Lynn's work - Port Authority Bus Terminal, New York (Kolarevic)\relax }{figure.caption.18}{}}
\newlabel{fig:Agkathidis1}{{16a}{24}{Generated Shell types\relax }{figure.caption.19}{}}
\newlabel{sub@fig:Agkathidis1}{{a}{24}{Generated Shell types\relax }{figure.caption.19}{}}
\newlabel{fig:Agkathidis2}{{16b}{24}{Physical model - double curved shell with suspended membrane\relax }{figure.caption.19}{}}
\newlabel{sub@fig:Agkathidis2}{{b}{24}{Physical model - double curved shell with suspended membrane\relax }{figure.caption.19}{}}
\@writefile{lof}{\contentsline {figure}{\numberline {16}{\ignorespaces Student work, Design Experimentation 2: Bird's Nest (Agkathidis)\relax }}{24}{figure.caption.19}\protected@file@percent }
\newlabel{fig:Agkathidis3}{{16}{24}{Student work, Design Experimentation 2: Bird's Nest (Agkathidis)\relax }{figure.caption.19}{}}
\citation{Bonnemaison-2019}
\citation{thompson1942growth}
\citation{alexander1977pattern}
\citation{gutAckerknecht-1993}
\citation{Richards-1951}
\@writefile{toc}{\contentsline {subsection}{\numberline {3.4}Architectural Solar controls - shading devices (Sun-Shades)}{25}{subsection.3.4}\protected@file@percent }
\citation{OlgyayOlgyay-1976}
\@writefile{lof}{\contentsline {figure}{\numberline {17}{\ignorespaces Typical Solar chart and its usage (example from SKAT Climate Responsive Building)\relax }}{26}{figure.caption.20}\protected@file@percent }
\newlabel{fig:SKATSolarChart1}{{17}{26}{Typical Solar chart and its usage (example from SKAT Climate Responsive Building)\relax }{figure.caption.20}{}}
\citation{oConner-1997}
\@writefile{lof}{\contentsline {figure}{\numberline {18}{\ignorespaces Sun-shade solutions (Olgyay \& Olgyay)\relax }}{27}{figure.caption.21}\protected@file@percent }
\newlabel{fig:OlgyayaSolutions}{{18}{27}{Sun-shade solutions (Olgyay \& Olgyay)\relax }{figure.caption.21}{}}
\citation{TorresSakamoto-2007}
\@writefile{toc}{\contentsline {subsection}{\numberline {3.5}Research on daylighting, solar radiation, energy efficient buildings and form-finding}{28}{subsection.3.5}\protected@file@percent }
\@writefile{toc}{\contentsline {subsubsection}{\numberline {3.5.1}Fa\c {c}ade design optimisation for daylight with a simple genetic algorithm}{28}{subsubsection.3.5.1}\protected@file@percent }
\citation{Manzanpinto-2009}
\citation{franzetti2004influence}
\@writefile{lof}{\contentsline {figure}{\numberline {19}{\ignorespaces Fa\c {c}ade design optimisation. (Torres \& Sakamoto)\relax }}{29}{figure.caption.22}\protected@file@percent }
\newlabel{fig:TorresSakamoto}{{19}{29}{Fa\c {c}ade design optimisation. (Torres \& Sakamoto)\relax }{figure.caption.22}{}}
\@writefile{toc}{\contentsline {subsubsection}{\numberline {3.5.2}Genetic optimization of external shading devices}{29}{subsubsection.3.5.2}\protected@file@percent }
\citation{ESP-RSoftware}
\citation{poloni1993aerodynamic}
\citation{rigoni2005nbi}
\@writefile{lof}{\contentsline {figure}{\numberline {20}{\ignorespaces Optimization of external shading devices. (Manzan \& Pinto)\relax }}{30}{figure.caption.23}\protected@file@percent }
\newlabel{fig:ManzanPinto}{{20}{30}{Optimization of external shading devices. (Manzan \& Pinto)\relax }{figure.caption.23}{}}
\citation{WrightMourshed-2009}
\@writefile{toc}{\contentsline {subsubsection}{\numberline {3.5.3}Geometric optimization of fenestration}{31}{subsubsection.3.5.3}\protected@file@percent }
\citation{HuangNiu-2015}
\@writefile{lof}{\contentsline {figure}{\numberline {21}{\ignorespaces Geometric optimisation of fenestration. (Wright \& Mourshed)\relax }}{32}{figure.caption.24}\protected@file@percent }
\newlabel{fig:WrightMourshed}{{21}{32}{Geometric optimisation of fenestration. (Wright \& Mourshed)\relax }{figure.caption.24}{}}
\@writefile{toc}{\contentsline {subsubsection}{\numberline {3.5.4}Optimal Building Envelope Design - History, current status, new trends}{32}{subsubsection.3.5.4}\protected@file@percent }
\citation{zhang-2016}
\@writefile{lof}{\contentsline {figure}{\numberline {22}{\ignorespaces Table - approaches to and modifications of Genetic Algorithms (Huang \& Niu)\relax }}{33}{figure.caption.25}\protected@file@percent }
\newlabel{fig:HuangNiu1}{{22}{33}{Table - approaches to and modifications of Genetic Algorithms (Huang \& Niu)\relax }{figure.caption.25}{}}
\@writefile{toc}{\contentsline {subsubsection}{\numberline {3.5.5}Shape optimization of free-form buildings}{33}{subsubsection.3.5.5}\protected@file@percent }
\citation{Wang2005}
\@writefile{lof}{\contentsline {figure}{\numberline {23}{\ignorespaces Free-form building shape optimisation. (Zhang et al.)\relax }}{34}{figure.caption.26}\protected@file@percent }
\newlabel{fig:ZhangZhangWang}{{23}{34}{Free-form building shape optimisation. (Zhang et al.)\relax }{figure.caption.26}{}}
\citation{zitzler2001spea2}
\citation{bader2011hype}
\citation{bleuler2003pisa}
\@writefile{lof}{\contentsline {figure}{\numberline {24}{\ignorespaces Pareto Frontier of the optimization. (Zhang et al.)\relax }}{35}{figure.caption.27}\protected@file@percent }
\newlabel{fig:ZhangZhangWang2}{{24}{35}{Pareto Frontier of the optimization. (Zhang et al.)\relax }{figure.caption.27}{}}
\citation{zexin2017robotic}
\citation{reekie1961draughtsmanship}
\citation{ching2015architectural}
\@writefile{toc}{\contentsline {subsubsection}{\numberline {3.5.6}Robotic Form-Finding and Construction}{36}{subsubsection.3.5.6}\protected@file@percent }
\@writefile{lof}{\contentsline {figure}{\numberline {25}{\ignorespaces Cut foam following the logic of architectural projection. (Zexin \& Mei)\relax }}{36}{figure.caption.28}\protected@file@percent }
\newlabel{fig:ZexinMei02}{{25}{36}{Cut foam following the logic of architectural projection. (Zexin \& Mei)\relax }{figure.caption.28}{}}
\@writefile{lof}{\contentsline {figure}{\numberline {26}{\ignorespaces Architectural projection - traditional and stereotomy with perspective. (Zexin \& Mei)\relax }}{37}{figure.caption.29}\protected@file@percent }
\newlabel{fig:ZexinMei01}{{26}{37}{Architectural projection - traditional and stereotomy with perspective. (Zexin \& Mei)\relax }{figure.caption.29}{}}
\@writefile{toc}{\contentsline {subsubsection}{\numberline {3.5.7}Comments regarding the Research in daylighting, solar radiation, building envelopes}{38}{subsubsection.3.5.7}\protected@file@percent }
\@writefile{toc}{\contentsline {subsection}{\numberline {3.6}General Comments}{40}{subsection.3.6}\protected@file@percent }
\citation{10.1145/3319619.3321891}
\@writefile{toc}{\contentsline {section}{\numberline {4}Methods}{41}{section.4}\protected@file@percent }
\@writefile{toc}{\contentsline {subsection}{\numberline {4.1}Introduction}{41}{subsection.4.1}\protected@file@percent }
\@writefile{lof}{\contentsline {figure}{\numberline {27}{\ignorespaces Point cloud of an evolved sun-shade in MeshLab. (Author)\relax }}{41}{figure.caption.30}\protected@file@percent }
\newlabel{fig:EvolvedSunShade01}{{27}{41}{Point cloud of an evolved sun-shade in MeshLab. (Author)\relax }{figure.caption.30}{}}
\citation{Cignoni-2008}
\@writefile{lof}{\contentsline {figure}{\numberline {28}{\ignorespaces Surfaced point cloud of the evolved sun-shade (viewed from underneath) in MeshLab. (Author)\relax }}{42}{figure.caption.31}\protected@file@percent }
\newlabel{fig:EvolvedSunShade02}{{28}{42}{Surfaced point cloud of the evolved sun-shade (viewed from underneath) in MeshLab. (Author)\relax }{figure.caption.31}{}}
\@writefile{toc}{\contentsline {subsection}{\numberline {4.2}Background}{42}{subsection.4.2}\protected@file@percent }
\newlabel{MethodBackground}{{4.2}{42}{Background}{subsection.4.2}{}}
\citation{Richards-1951}
\@writefile{toc}{\contentsline {subsubsection}{\numberline {4.2.1}Solar Angles}{43}{subsubsection.4.2.1}\protected@file@percent }
\newlabel{SolarAngles}{{4.2.1}{43}{Solar Angles}{subsubsection.4.2.1}{}}
\newlabel{fig:SolarAngle-2Vectors}{{29a}{43}{Solar Angle as two vectors. (Author)\relax }{figure.caption.32}{}}
\newlabel{sub@fig:SolarAngle-2Vectors}{{a}{43}{Solar Angle as two vectors. (Author)\relax }{figure.caption.32}{}}
\newlabel{fig:SolarP-NBR}{{29b}{43}{Solar protractor issued by the South African National Building Authority for use at latitude 34$^{\circ }$ south, i.e. Cape Town. (SANBA, 1981)\relax }{figure.caption.32}{}}
\newlabel{sub@fig:SolarP-NBR}{{b}{43}{Solar protractor issued by the South African National Building Authority for use at latitude 34$^{\circ }$ south, i.e. Cape Town. (SANBA, 1981)\relax }{figure.caption.32}{}}
\@writefile{lof}{\contentsline {figure}{\numberline {29}{\ignorespaces Solar angle vectors and the solar protractor\relax }}{43}{figure.caption.32}\protected@file@percent }
\newlabel{fig:Author1}{{29}{43}{Solar angle vectors and the solar protractor\relax }{figure.caption.32}{}}
\@writefile{lof}{\contentsline {figure}{\numberline {30}{\ignorespaces Solar protractor marked to indicate how the vertical solar angle is retrieved (Author)\relax }}{45}{figure.caption.33}\protected@file@percent }
\newlabel{fig:VertAngleProtractor}{{30}{45}{Solar protractor marked to indicate how the vertical solar angle is retrieved (Author)\relax }{figure.caption.33}{}}
\@writefile{toc}{\contentsline {subsubsection}{\numberline {4.2.2}Solar values as an example}{45}{subsubsection.4.2.2}\protected@file@percent }
\newlabel{SampleBuilding}{{4.2.2}{45}{Solar values as an example}{subsubsection.4.2.2}{}}
\@writefile{lof}{\contentsline {figure}{\numberline {31}{\ignorespaces Sample building, West fa\c {c}ade is to the top. (Author, after work by MLH Architects)\relax }}{45}{figure.caption.34}\protected@file@percent }
\newlabel{fig:CentFloor04}{{31}{45}{Sample building, West fa\c {c}ade is to the top. (Author, after work by MLH Architects)\relax }{figure.caption.34}{}}
\@writefile{lof}{\contentsline {figure}{\numberline {32}{\ignorespaces Office spaces within a sample building, Upper Campus, UCT. (Author, after work by MLH Architects)\relax }}{46}{figure.caption.35}\protected@file@percent }
\newlabel{fig:CentOffice425}{{32}{46}{Office spaces within a sample building, Upper Campus, UCT. (Author, after work by MLH Architects)\relax }{figure.caption.35}{}}
\@writefile{lof}{\contentsline {figure}{\numberline {33}{\ignorespaces Sample building, Footprint and Orientation with GIS co-ordinate system. (Author)\relax }}{47}{figure.caption.36}\protected@file@percent }
\newlabel{fig:CentFootPrint}{{33}{47}{Sample building, Footprint and Orientation with GIS co-ordinate system. (Author)\relax }{figure.caption.36}{}}
\@writefile{lof}{\contentsline {figure}{\numberline {34}{\ignorespaces Sample building with solar protractor superimposed. (Author)\relax }}{47}{figure.caption.37}\protected@file@percent }
\newlabel{fig:CentwSolarProtractor}{{34}{47}{Sample building with solar protractor superimposed. (Author)\relax }{figure.caption.37}{}}
\@writefile{lot}{\contentsline {table}{\numberline {1}{\ignorespaces Table of values extracted from the Solar Protractor: West fa\c {c}ade\relax }}{48}{table.caption.38}\protected@file@percent }
\newlabel{tab:SampleBuildingWest}{{1}{48}{Table of values extracted from the Solar Protractor: West fa\c {c}ade\relax }{table.caption.38}{}}
\@writefile{toc}{\contentsline {subsubsection}{\numberline {4.2.3}Digital Solar Protractor}{48}{subsubsection.4.2.3}\protected@file@percent }
\newlabel{DigitalSolarProtractor}{{4.2.3}{48}{Digital Solar Protractor}{subsubsection.4.2.3}{}}
\@writefile{lof}{\contentsline {figure}{\numberline {35}{\ignorespaces A Digital Solar Protractor - Grasshopper with LadyBug. (Author)\relax }}{49}{figure.caption.39}\protected@file@percent }
\newlabel{fig:DigitalSolarProtractor}{{35}{49}{A Digital Solar Protractor - Grasshopper with LadyBug. (Author)\relax }{figure.caption.39}{}}
\@writefile{toc}{\contentsline {subsubsection}{\numberline {4.2.4}The window opening and `bounding box'}{50}{subsubsection.4.2.4}\protected@file@percent }
\newlabel{WinOpenBoundBox}{{4.2.4}{50}{The window opening and `bounding box'}{subsubsection.4.2.4}{}}
\@writefile{toc}{\contentsline {subsubsection}{\numberline {4.2.5}Calculating sun rays}{50}{subsubsection.4.2.5}\protected@file@percent }
\newlabel{FitnessAndCalculation}{{4.2.5}{50}{Calculating sun rays}{subsubsection.4.2.5}{}}
\@writefile{lof}{\contentsline {figure}{\numberline {36}{\ignorespaces Sunbeam triangulation calculation - XZ (Author)\relax }}{51}{figure.caption.40}\protected@file@percent }
\newlabel{fig:TriangulationXY}{{36}{51}{Sunbeam triangulation calculation - XZ (Author)\relax }{figure.caption.40}{}}
\@writefile{lof}{\contentsline {figure}{\numberline {37}{\ignorespaces Sunbeam triangulation calculation - YZ (Author)\relax }}{52}{figure.caption.41}\protected@file@percent }
\newlabel{fig:TriangulationYZ}{{37}{52}{Sunbeam triangulation calculation - YZ (Author)\relax }{figure.caption.41}{}}
\@writefile{lof}{\contentsline {figure}{\numberline {38}{\ignorespaces Casting the solar angle from a Southern Hemisphere projection on a North facing fa\c {c}ade into a range between 0$^{\circ }$ and 180$^{\circ }$ (Author)\relax }}{53}{figure.caption.42}\protected@file@percent }
\newlabel{fig:SouthHemi-NorthFace}{{38}{53}{Casting the solar angle from a Southern Hemisphere projection on a North facing fa\c {c}ade into a range between 0$^{\circ }$ and 180$^{\circ }$ (Author)\relax }{figure.caption.42}{}}
\@writefile{lof}{\contentsline {figure}{\numberline {39}{\ignorespaces Casting the solar angle from a Northern or Southern Hemisphere projection on an East facing fa\c {c}ade into a range between 0$^{\circ }$ and 180$^{\circ }$ (Author)\relax }}{53}{figure.caption.43}\protected@file@percent }
\newlabel{fig:NorthSouth-EastFace}{{39}{53}{Casting the solar angle from a Northern or Southern Hemisphere projection on an East facing fa\c {c}ade into a range between 0$^{\circ }$ and 180$^{\circ }$ (Author)\relax }{figure.caption.43}{}}
\@writefile{lof}{\contentsline {figure}{\numberline {40}{\ignorespaces Casting the solar angle from a Northern Hemisphere projection on a South facing fa\c {c}ade into a range between 0$^{\circ }$ and 180$^{\circ }$ (Author)\relax }}{54}{figure.caption.44}\protected@file@percent }
\newlabel{fig:NorthHemi-SouthFace}{{40}{54}{Casting the solar angle from a Northern Hemisphere projection on a South facing fa\c {c}ade into a range between 0$^{\circ }$ and 180$^{\circ }$ (Author)\relax }{figure.caption.44}{}}
\@writefile{lof}{\contentsline {figure}{\numberline {41}{\ignorespaces Casting the solar angle from a Northern or Southern Hemisphere projection on a West facing fa\c {c}ade into a range between 0$^{\circ }$ and 180$^{\circ }$ (Author)\relax }}{54}{figure.caption.45}\protected@file@percent }
\newlabel{fig:NorthSouth-WestFace}{{41}{54}{Casting the solar angle from a Northern or Southern Hemisphere projection on a West facing fa\c {c}ade into a range between 0$^{\circ }$ and 180$^{\circ }$ (Author)\relax }{figure.caption.45}{}}
\citation{HuangNiu-2015}
\citation{DeLanda-2002}
\citation{coatesMakris-1999}
\@writefile{toc}{\contentsline {subsection}{\numberline {4.3}Evolutionary Algorithms}{55}{subsection.4.3}\protected@file@percent }
\citation{deJong-2006}
\citation{BackFogelZbigniew-1997}
\citation{EibenSmith-2008}
\citation{deJongFogelSchwefel-1997}
\@writefile{toc}{\contentsline {subsubsection}{\numberline {4.3.1}General Outline}{56}{subsubsection.4.3.1}\protected@file@percent }
\@writefile{toc}{\contentsline {subsubsection}{\numberline {4.3.2}Why Evolution Strategies for the algorithm?}{56}{subsubsection.4.3.2}\protected@file@percent }
\citation{eiben2002evolutionary}
\@writefile{toc}{\contentsline {subsubsection}{\numberline {4.3.3}Fitness}{57}{subsubsection.4.3.3}\protected@file@percent }
\@writefile{toc}{\contentsline {subsubsection}{\numberline {4.3.4}Building fa\c {c}ade}{57}{subsubsection.4.3.4}\protected@file@percent }
\citation{BeyerSchwefel-2002}
\@writefile{toc}{\contentsline {subsubsection}{\numberline {4.3.5}Bounding box - point cloud}{58}{subsubsection.4.3.5}\protected@file@percent }
\@writefile{toc}{\contentsline {subsubsection}{\numberline {4.3.6}Population}{58}{subsubsection.4.3.6}\protected@file@percent }
\@writefile{toc}{\contentsline {subsubsection}{\numberline {4.3.7}Recombination}{58}{subsubsection.4.3.7}\protected@file@percent }
\newlabel{EvolvableStrParam}{{4.3.7}{58}{Recombination}{subsubsection.4.3.7}{}}
\@writefile{toc}{\contentsline {subsubsection}{\numberline {4.3.8}Mutation}{58}{subsubsection.4.3.8}\protected@file@percent }
\newlabel{LocalConvergence}{{4.3.8}{58}{Mutation}{subsubsection.4.3.8}{}}
\@writefile{toc}{\contentsline {subsubsection}{\numberline {4.3.9}Summary of ES}{59}{subsubsection.4.3.9}\protected@file@percent }
\citation{beyer2001theory}
\@writefile{toc}{\contentsline {subsection}{\numberline {4.4}Pseudocode - Evolution Strategies}{60}{subsection.4.4}\protected@file@percent }
\citation{10.1145/3319619.3321891}
\@writefile{toc}{\contentsline {subsection}{\numberline {4.5}Point cloud to mesh}{61}{subsection.4.5}\protected@file@percent }
\@writefile{toc}{\contentsline {subsection}{\numberline {4.6}Traditional Sun-Shade `fitness'}{62}{subsection.4.6}\protected@file@percent }
\newlabel{fig:SlopedOverhangMeshlabo1}{{42a}{62}{Traditional sun-shade - sloped overhang in MeshLab (Author)\relax }{figure.caption.46}{}}
\newlabel{sub@fig:SlopedOverhangMeshlabo1}{{a}{62}{Traditional sun-shade - sloped overhang in MeshLab (Author)\relax }{figure.caption.46}{}}
\newlabel{fig:SlopedOverhangMeshlab02}{{42b}{62}{Traditional sun-shade - sloped overhang in MeshLab side view (Author)\relax }{figure.caption.46}{}}
\newlabel{sub@fig:SlopedOverhangMeshlab02}{{b}{62}{Traditional sun-shade - sloped overhang in MeshLab side view (Author)\relax }{figure.caption.46}{}}
\@writefile{lof}{\contentsline {figure}{\numberline {42}{\ignorespaces Traditional sun-shade `Sloped Overhang' - 3D point cloud in MeshLab\relax }}{62}{figure.caption.46}\protected@file@percent }
\newlabel{fig:SlopedOverhangMeshlab}{{42}{62}{Traditional sun-shade `Sloped Overhang' - 3D point cloud in MeshLab\relax }{figure.caption.46}{}}
\@writefile{lof}{\contentsline {figure}{\numberline {43}{\ignorespaces Traditional sun-shade `Horizontal Overhang' - 3D point cloud in MeshLab (Author)\relax }}{63}{figure.caption.47}\protected@file@percent }
\newlabel{fig:HorizontalOverhangMeshlab}{{43}{63}{Traditional sun-shade `Horizontal Overhang' - 3D point cloud in MeshLab (Author)\relax }{figure.caption.47}{}}
\citation{oConner-1997}
\@writefile{toc}{\contentsline {section}{\numberline {5}Experiments and Results}{64}{section.5}\protected@file@percent }
\@writefile{toc}{\contentsline {subsection}{\numberline {5.1}University of Cape Town - Data Management}{64}{subsection.5.1}\protected@file@percent }
\@writefile{toc}{\contentsline {subsection}{\numberline {5.2}Traditional Sun-shades Fitness results}{64}{subsection.5.2}\protected@file@percent }
\@writefile{lof}{\contentsline {figure}{\numberline {44}{\ignorespaces Traditional window sun-shades - combined image (O'Conner et al.)\relax }}{64}{figure.caption.48}\protected@file@percent }
\newlabel{fig:10TraditionalSunShades}{{44}{64}{Traditional window sun-shades - combined image (O'Conner et al.)\relax }{figure.caption.48}{}}
\@writefile{lot}{\contentsline {table}{\numberline {2}{\ignorespaces Traditional Sun-shades - fitness values.\relax }}{65}{table.caption.49}\protected@file@percent }
\newlabel{tab:TradSunScreensFitness}{{2}{65}{Traditional Sun-shades - fitness values.\relax }{table.caption.49}{}}
\@writefile{toc}{\contentsline {subsubsection}{\numberline {5.2.1}Traditional Sun-shades Fitness - comments}{66}{subsubsection.5.2.1}\protected@file@percent }
\@writefile{toc}{\contentsline {subsection}{\numberline {5.3}Evolved Sun-shades mesh results}{66}{subsection.5.3}\protected@file@percent }
\@writefile{lof}{\contentsline {figure}{\numberline {45}{\ignorespaces Evolved sun-shade in-situ. (Author)\relax }}{67}{figure.caption.50}\protected@file@percent }
\newlabel{fig:EvolvedSunShadeInsitu}{{45}{67}{Evolved sun-shade in-situ. (Author)\relax }{figure.caption.50}{}}
\@writefile{lof}{\contentsline {figure}{\numberline {46}{\ignorespaces MeshLab generated sun-shade for the Cape Town East first run. (Author)\relax }}{67}{figure.caption.51}\protected@file@percent }
\newlabel{fig:MeshLabCTEastRun1}{{46}{67}{MeshLab generated sun-shade for the Cape Town East first run. (Author)\relax }{figure.caption.51}{}}
\@writefile{lof}{\contentsline {figure}{\numberline {47}{\ignorespaces MeshLab generated sun-shade for the Cape Town East fourth run. (Author)\relax }}{68}{figure.caption.52}\protected@file@percent }
\newlabel{fig:MeshLabCTEastRun4}{{47}{68}{MeshLab generated sun-shade for the Cape Town East fourth run. (Author)\relax }{figure.caption.52}{}}
\@writefile{lof}{\contentsline {figure}{\numberline {48}{\ignorespaces MeshLab generated sun-shade for the Amsterdam East second run. (Author)\relax }}{68}{figure.caption.53}\protected@file@percent }
\newlabel{fig:MeshLabAmstEastRun2}{{48}{68}{MeshLab generated sun-shade for the Amsterdam East second run. (Author)\relax }{figure.caption.53}{}}
\@writefile{lof}{\contentsline {figure}{\numberline {49}{\ignorespaces MeshLab generated sun-shade for the Amsterdam East third run. (Author)\relax }}{69}{figure.caption.54}\protected@file@percent }
\newlabel{fig:MeshLabAmstEastRun3}{{49}{69}{MeshLab generated sun-shade for the Amsterdam East third run. (Author)\relax }{figure.caption.54}{}}
\@writefile{toc}{\contentsline {subsubsection}{\numberline {5.3.1}Evolved Sun-shades meshes - comments}{69}{subsubsection.5.3.1}\protected@file@percent }
\@writefile{toc}{\contentsline {subsection}{\numberline {5.4}Evolution Strategies - fitness results}{70}{subsection.5.4}\protected@file@percent }
\@writefile{toc}{\contentsline {subsubsection}{\numberline {5.4.1}Individual Fitness values}{70}{subsubsection.5.4.1}\protected@file@percent }
\@writefile{toc}{\contentsline {subsubsection}{\numberline {5.4.2}Fitness values per Generation}{71}{subsubsection.5.4.2}\protected@file@percent }
\newlabel{MeshLabAnimated}{{5.4.2}{71}{Fitness values per Generation}{subsubsection.5.4.2}{}}
\@writefile{toc}{\contentsline {subsubsection}{\numberline {5.4.3}Mean fitness per Evolution Strategies run compared to traditional sun-shade}{71}{subsubsection.5.4.3}\protected@file@percent }
\newlabel{MeanFitnessPerESRun}{{5.4.3}{71}{Mean fitness per Evolution Strategies run compared to traditional sun-shade}{subsubsection.5.4.3}{}}
\@writefile{lof}{\contentsline {figure}{\numberline {50}{\ignorespaces Evolutionary Strategy - Amsterdam East fitness. (Author)\relax }}{72}{figure.caption.55}\protected@file@percent }
\newlabel{fig:ESFitnessGraphAmstEast}{{50}{72}{Evolutionary Strategy - Amsterdam East fitness. (Author)\relax }{figure.caption.55}{}}
\@writefile{lof}{\contentsline {figure}{\numberline {51}{\ignorespaces Evolutionary Strategy - Cape Town East fitness. (Author)\relax }}{73}{figure.caption.56}\protected@file@percent }
\newlabel{fig:ESFitnessGraphCTEast}{{51}{73}{Evolutionary Strategy - Cape Town East fitness. (Author)\relax }{figure.caption.56}{}}
\@writefile{lof}{\contentsline {figure}{\numberline {52}{\ignorespaces Evolutionary Strategy - Amsterdam West fitness. (Author)\relax }}{74}{figure.caption.57}\protected@file@percent }
\newlabel{fig:ESFitnessGraphAmstWest}{{52}{74}{Evolutionary Strategy - Amsterdam West fitness. (Author)\relax }{figure.caption.57}{}}
\@writefile{lof}{\contentsline {figure}{\numberline {53}{\ignorespaces Evolutionary Strategy - Cape Town West fitness. (Author)\relax }}{75}{figure.caption.58}\protected@file@percent }
\newlabel{fig:ESFitnessGraphCTWest}{{53}{75}{Evolutionary Strategy - Cape Town West fitness. (Author)\relax }{figure.caption.58}{}}
\@writefile{toc}{\contentsline {subsection}{\numberline {5.5}Hypothesis testing - single sample T test (two tailed)}{76}{subsection.5.5}\protected@file@percent }
\@writefile{toc}{\contentsline {subsubsection}{\numberline {5.5.1}Comments and observations}{77}{subsubsection.5.5.1}\protected@file@percent }
\citation{Frazer-1995}
\@writefile{toc}{\contentsline {section}{\numberline {6}Discussion}{78}{section.6}\protected@file@percent }
\@writefile{toc}{\contentsline {subsection}{\numberline {6.1}Form-Finding}{78}{subsection.6.1}\protected@file@percent }
\citation{BeyerSchwefel-2002}
\citation{EibenSmith-2008}
\@writefile{toc}{\contentsline {subsection}{\numberline {6.2}Evolution Strategies}{79}{subsection.6.2}\protected@file@percent }
\@writefile{toc}{\contentsline {subsection}{\numberline {6.3}General observations}{79}{subsection.6.3}\protected@file@percent }
\citation{TorresSakamoto-2007}
\citation{WrightMourshed-2009}
\citation{Manzanpinto-2009}
\citation{zhang-2016}
\@writefile{toc}{\contentsline {section}{\numberline {7}Conclusion and Future Work}{81}{section.7}\protected@file@percent }
\@writefile{toc}{\contentsline {subsection}{\numberline {7.1}Conclusion}{81}{subsection.7.1}\protected@file@percent }
\@writefile{toc}{\contentsline {subsection}{\numberline {7.2}Future Work}{81}{subsection.7.2}\protected@file@percent }
\@writefile{toc}{\contentsline {subsubsection}{\numberline {7.2.1}Explore other fa\c {c}ade conditions}{81}{subsubsection.7.2.1}\protected@file@percent }
\@writefile{toc}{\contentsline {subsubsection}{\numberline {7.2.2}Changes to the Evolutionary Algorithm}{81}{subsubsection.7.2.2}\protected@file@percent }
\citation{kramer2010evolutionary}
\citation{franzetti2004influence}
\citation{Manzanpinto-2009}
\citation{al2013building}
\citation{bojic2012toward}
\citation{Frazer-1995}
\citation{Burry2016-03-01}
\citation{piker2013kangaroo}
\citation{5684497}
\citation{mac2003playing}
\citation{Pottmann-2007}
\citation{templet2020game}
\@writefile{toc}{\contentsline {subsubsection}{\numberline {7.2.3}Add simulation to improve upon the idea of fitness}{82}{subsubsection.7.2.3}\protected@file@percent }
\citation{Cignoni-2008}
\citation{Pottmann-2007}
\@writefile{toc}{\contentsline {subsubsection}{\numberline {7.2.4}Reconnecting to `original' Form-finding principals}{83}{subsubsection.7.2.4}\protected@file@percent }
\@writefile{toc}{\contentsline {subsubsection}{\numberline {7.2.5}Meshing and surfacing of the point cloud}{83}{subsubsection.7.2.5}\protected@file@percent }
\bibstyle{acm}
\bibdata{Bibliography}
\bibcite{agkathidis-2016}{1}
\bibcite{al2013building}{2}
\bibcite{alexander1964notes}{3}
\bibcite{alexander1977pattern}{4}
\bibcite{asojo2000design}{5}
\bibcite{BackFogelZbigniew-1997}{6}
\bibcite{bader2011hype}{7}
\bibcite{beyer2001theory}{8}
\bibcite{BeyerSchwefel-2002}{9}
\bibcite{bhatt2010christopher}{10}
\bibcite{bleuler2003pisa}{11}
\bibcite{bojic2012toward}{12}
\bibcite{Bonnemaison-2019}{13}
\bibcite{Burry2016-03-01}{14}
\bibcite{ching2015architectural}{15}
\bibcite{Cignoni-2008}{16}
\@writefile{toc}{\contentsline {section}{References}{85}{section*.59}\protected@file@percent }
\bibcite{coatesMakris-1999}{17}
\bibcite{10.1145/3319619.3321891}{18}
\bibcite{conway-1970}{19}
\bibcite{darwin1872origin}{20}
\bibcite{dawes2017christopher}{21}
\bibcite{dawkins-1995}{22}
\bibcite{deJong-2006}{23}
\bibcite{deJongFogelSchwefel-1997}{24}
\bibcite{DeLanda-2002}{25}
\bibcite{EibenSmith-2008}{26}
\bibcite{eiben2002evolutionary}{27}
\bibcite{ESP-RSoftware}{28}
\bibcite{fletcher1958history}{29}
\bibcite{franzetti2004influence}{30}
\bibcite{Frazer-1995}{31}
\bibcite{galilei1914dialogues}{32}
\bibcite{gutAckerknecht-1993}{33}
\bibcite{Castle-2004}{34}
\bibcite{Holland-2010}{35}
\bibcite{holland-1992}{36}
\bibcite{5684497}{37}
\bibcite{HuangNiu-2015}{38}
\bibcite{kolarevic2000digital}{39}
\bibcite{kramer2010evolutionary}{40}
\bibcite{mac2003playing}{41}
\bibcite{Manzanpinto-2009}{42}
\bibcite{Martinell-1967}{43}
\bibcite{mccarthy-1987}{44}
\bibcite{Mitchell-1990}{45}
\bibcite{neumann1966theory}{46}
\bibcite{oConner-1997}{47}
\bibcite{OlgyayOlgyay-1976}{48}
\bibcite{piker2013kangaroo}{49}
\bibcite{poloni1993aerodynamic}{50}
\bibcite{Pottmann-2007}{51}
\bibcite{reekie1961draughtsmanship}{52}
\bibcite{Richards-1951}{53}
\bibcite{rigoni2005nbi}{54}
\bibcite{schumacher2009parametricism}{55}
\bibcite{stiny-1980}{56}
\bibcite{templet2020game}{57}
\bibcite{thompson1915galileo}{58}
\bibcite{thompson1942growth}{59}
\bibcite{TorresSakamoto-2007}{60}
\bibcite{van1924towards}{61}
\bibcite{Wang2005}{62}
\bibcite{wolfram1984universality}{63}
\bibcite{WrightMourshed-2009}{64}
\bibcite{Zerbst-1993}{65}
\bibcite{zexin2017robotic}{66}
\bibcite{zhang-2016}{67}
\bibcite{zitzler2001spea2}{68}
\@writefile{toc}{\contentsline {section}{\numberline {8}Appendix 1 - Source Code}{90}{section.8}\protected@file@percent }
\@writefile{toc}{\contentsline {section}{\numberline {9}Appendix 2 - Source Code cleaning output}{101}{section.9}\protected@file@percent }
\@writefile{toc}{\contentsline {section}{\numberline {10}Appendix 3 - Solar calculations (every 15s)}{103}{section.10}\protected@file@percent }
\@writefile{toc}{\contentsline {section}{\numberline {11}Appendix 4 - Individual fitness details}{109}{section.11}\protected@file@percent }
\@writefile{lot}{\contentsline {table}{\numberline {3}{\ignorespaces Fitness Ranked sample of individuals - 1st Gen, Cape Town West, 6th run (Author)\relax }}{109}{table.caption.60}\protected@file@percent }
\newlabel{tab:CTWest6thRun1}{{3}{109}{Fitness Ranked sample of individuals - 1st Gen, Cape Town West, 6th run (Author)\relax }{table.caption.60}{}}
\@writefile{lot}{\contentsline {table}{\numberline {4}{\ignorespaces Fitness Ranked sample of individuals - Final Gen, Cape Town West, 6th run (Author)\relax }}{110}{table.caption.61}\protected@file@percent }
\newlabel{tab:CTWest6thRun2}{{4}{110}{Fitness Ranked sample of individuals - Final Gen, Cape Town West, 6th run (Author)\relax }{table.caption.61}{}}
\@writefile{toc}{\contentsline {section}{\numberline {12}Appendix 5 - Fitness values per generation per ES run}{111}{section.12}\protected@file@percent }
\@writefile{lot}{\contentsline {table}{\numberline {5}{\ignorespaces Amsterdam East - Mean Fitness value per generation.\relax }}{111}{table.caption.62}\protected@file@percent }
\newlabel{tab:AmstEastFitnessGenerations}{{5}{111}{Amsterdam East - Mean Fitness value per generation.\relax }{table.caption.62}{}}
\@writefile{lot}{\contentsline {table}{\numberline {6}{\ignorespaces Amsterdam West - Mean Fitness value per generation (first 10 generations shown).\relax }}{112}{table.caption.63}\protected@file@percent }
\newlabel{tab:AmstWestFitnessGenerations}{{6}{112}{Amsterdam West - Mean Fitness value per generation (first 10 generations shown).\relax }{table.caption.63}{}}
\@writefile{lot}{\contentsline {table}{\numberline {7}{\ignorespaces Cape Town East - Mean Fitness value per generation across 10 runs.\relax }}{113}{table.caption.64}\protected@file@percent }
\newlabel{tab:CTEastFitnessGenerations}{{7}{113}{Cape Town East - Mean Fitness value per generation across 10 runs.\relax }{table.caption.64}{}}
\@writefile{lot}{\contentsline {table}{\numberline {8}{\ignorespaces Cape Town West - Mean Fitness value per generation across 10 runs.\relax }}{114}{table.caption.65}\protected@file@percent }
\newlabel{tab:CTWestFitnessGenerations}{{8}{114}{Cape Town West - Mean Fitness value per generation across 10 runs.\relax }{table.caption.65}{}}
\@writefile{toc}{\contentsline {section}{\numberline {13}Appendix 6 - Fitness per fa\c {c}ade}{115}{section.13}\protected@file@percent }
\@writefile{lot}{\contentsline {table}{\numberline {9}{\ignorespaces Amsterdam East fa\c {c}ade - comparison between fa\c {c}ade fitness values.\relax }}{115}{table.caption.66}\protected@file@percent }
\newlabel{tab:AmstEastFacadeFitness}{{9}{115}{Amsterdam East fa\c {c}ade - comparison between fa\c {c}ade fitness values.\relax }{table.caption.66}{}}
\@writefile{lot}{\contentsline {table}{\numberline {10}{\ignorespaces Cape Town East fa\c {c}ade - comparison between fa\c {c}ade fitness values.\relax }}{116}{table.caption.67}\protected@file@percent }
\newlabel{tab:CTEastFacadeFitness}{{10}{116}{Cape Town East fa\c {c}ade - comparison between fa\c {c}ade fitness values.\relax }{table.caption.67}{}}
\@writefile{lot}{\contentsline {table}{\numberline {11}{\ignorespaces Amsterdam West fa\c {c}ade - comparison between fa\c {c}ade fitness values.\relax }}{117}{table.caption.68}\protected@file@percent }
\newlabel{tab:AmstWestFacadeFitness}{{11}{117}{Amsterdam West fa\c {c}ade - comparison between fa\c {c}ade fitness values.\relax }{table.caption.68}{}}
\@writefile{lot}{\contentsline {table}{\numberline {12}{\ignorespaces Cape Town West fa\c {c}ade - comparison between fa\c {c}ade fitness values.\relax }}{118}{table.caption.69}\protected@file@percent }
\newlabel{tab:CTWestFacadeFitness}{{12}{118}{Cape Town West fa\c {c}ade - comparison between fa\c {c}ade fitness values.\relax }{table.caption.69}{}}
\gdef \@abspage@last{121}
